…
    sunspots_rec <- 
      recipe(n_sunspot ~ year, data = sun_train) |> 
        step_harmonic(year, 
                      frequency = 1 / 11, 
                      cycle_size = 1, # sunspots happen once every 11 yrs
                      role = "predictor",
                      keep_original_cols = FALSE) |> 
        prep() |>
        bake(new_data = NULL)

    #> # A tibble: 289 × 3
    #>    n_sunspot year_sin_1 year_cos_1
    #>        <dbl>      <dbl>      <dbl>
    #>  1         5  -2.82e- 1     -0.959
    #>  2        11  -7.56e- 1     -0.655
    #>  3        16  -9.90e- 1     -0.142
    #>  4        23  -9.10e- 1      0.415
    #>  5        36  -5.41e- 1      0.841
    #>  6        58   6.86e-14      1    
    #>  7        29   5.41e- 1      0.841
    #>  8        20   9.10e- 1      0.415
    #>  9        10   9.90e- 1     -0.142
    #> 10         8   7.56e- 1     -0.655
    #> # ℹ 279 more rows
    ```
…
