…
    control = control_grid(extract = get_glmnet_coefs)
  )
glmnet_coefs <- 
  glmnet_res %>% 
  select(id, .extracts) %>% 
  unnest(.extracts) %>% 
  select(id, mixture, .extracts) %>% 
  group_by(id, mixture) %>%          # ┐
  slice(1) %>%                      # │ Remove the redundant results
  ungroup() %>%                      # ┘
  unnest(.extracts)
glmnet_coefs %>% 
  select(id, penalty, mixture, term, estimate) %>% 
  filter(term != "(Intercept)")
#> # A tibble: 300 × 5
#>    id        penalty mixture term      estimate
#>    <chr>        <dbl>  <dbl> <chr>        <dbl>
#>  1 Bootstrap1 1          0.1 Clark_Lake    0.391
#>  2 Bootstrap1 0.464      0.1 Clark_Lake    0.485
#>  3 Bootstrap1 0.215      0.1 Clark_Lake    0.590
#>  4 Bootstrap1 0.1        0.1 Clark_Lake    0.680
#>  5 Bootstrap1 0.0464      0.1 Clark_Lake    0.746
#>  6 Bootstrap1 0.0215      0.1 Clark_Lake    0.793
#>  7 Bootstrap1 0.01        0.1 Clark_Lake    0.817
#>  8 Bootstrap1 0.00464    0.1 Clark_Lake    0.828
#>  9 Bootstrap1 0.00215    0.1 Clark_Lake    0.834
#> 10 Bootstrap1 0.001      0.1 Clark_Lake    0.837
#> # … with 290 more rows
```
…
